{
  "project_info": {
    "project_number": "232483109410",
    "project_id": "quanticoquibrar",
    "storage_bucket": "quanticoquibrar.appspot.com"
  },
  "client": [
    {
      "client_info": {
        "mobilesdk_app_id": "1:232483109410:android:ff3d3d81f36b419f41287b",
        "android_client_info": {
          "package_name": "com.example.chattt"
        }
      },
      "oauth_client": [],
      "api_key": [
        {
          "current_key": "AIzaSyBxNigdPijYKwX_DHJwazxStFozwGGWPFQ"
        }
      ],
      "services": {
        "appinvite_service": {
          "other_platform_oauth_client": []
        }
      }
    },
    {
      "client_info": {
        "mobilesdk_app_id": "1:232483109410:android:46cc546b8fcebe4841287b",
        "android_client_info": {
          "package_name": "com.example.projectowasap2"
        }
      },
      "oauth_client": [],
      "api_key": [
        {
          "current_key": "AIzaSyBxNigdPijYKwX_DHJwazxStFozwGGWPFQ"
        }
      ],
      "services": {
        "appinvite_service": {
          "other_platform_oauth_client": []
        }
      }
    }
  ],
  "configuration_version": "1"
}